Data Science Pipeline Tutorial: Coronavirus Edition
…
Now that we have all of the term dataframes we can join them with our other data frame to get a full summary of any data that may seem interesting to us to use for analysis!

corona_state_data <- full_state_data
corona_state_data <-  corona_state_data %>% left_join(coronavirus_term, by = c("state","date"))
corona_state_data <-  corona_state_data %>% left_join(sourdough_term, by = c("state","date"))
corona_state_data <-  corona_state_data %>% left_join(bread_term, by = c("state","date"))
corona_state_data <-  corona_state_data %>% left_join(ticketmaster_term, by = c("state","date"))
corona_state_data <-  corona_state_data %>% left_join(zoom_term, by = c("state","date"))
corona_state_data

## # A tibble: 5,841 x 11
##    state date       cases deaths lockdown_start in_lockdown coronavirus_hits
##    <chr> <date>     <dbl>  <dbl> <date>         <lgl>                  <dbl>
##  1 Wash~ 2020-01-21     1      0 2020-03-23     FALSE                     NA
##  2 Wash~ 2020-01-22     1      0 2020-03-23     FALSE                     NA
##  3 Wash~ 2020-01-23     1      0 2020-03-23     FALSE                     NA
##  4 Illi~ 2020-01-24     1      0 2020-03-21     FALSE                     NA
##  5 Wash~ 2020-01-24     1      0 2020-03-23     FALSE                     NA
##  6 Cali~ 2020-01-25     1      0 2020-03-19     FALSE                     NA
##  7 Illi~ 2020-01-25     1      0 2020-03-21     FALSE                     NA
##  8 Wash~ 2020-01-25     1      0 2020-03-23     FALSE                     NA
##  9 Ariz~ 2020-01-26     1      0 2020-03-31     FALSE                     NA
## 10 Cali~ 2020-01-26     2      0 2020-03-19     FALSE                     NA
## # ... with 5,831 more rows, and 4 more variables: sourdough_hits <dbl>,
## #   bread_hits <dbl>, ticketmaster_hits <dbl>, zoom_hits <dbl>
…
cases_df <- corona_state_data %>%
  select(state, date, cases, deaths) %>%
  mutate(death_rate = ((1.0*deaths)/cases))
cases_df

## # A tibble: 5,841 x 5
##    state      date       cases deaths death_rate
##    <chr>      <date>     <dbl>  <dbl>      <dbl>
##  1 Washington 2020-01-21     1      0          0
##  2 Washington 2020-01-22     1      0          0
##  3 Washington 2020-01-23     1      0          0
##  4 Illinois   2020-01-24     1      0          0
##  5 Washington 2020-01-24     1      0          0
##  6 California 2020-01-25     1      0          0
##  7 Illinois   2020-01-25     1      0          0
##  8 Washington 2020-01-25     1      0          0
##  9 Arizona    2020-01-26     1      0          0
## 10 California 2020-01-26     2      0          0
## # ... with 5,831 more rows
…
## [1] "p-value =  1.23311688441479e-17"

We ended up with an extremely small p-value. Therefore we can reject the null hypothesis! This means by some force the coronavirus lockdown was related to the amount of people googling bread. Exciting stuff! However, do not confuse the fancy graphs and functions with proof of causation. Hypothesis testing can only show correlation.

Machine Learning

Before training our model and using machine learning, lets talk about what those terms actually mean.

All of the data we have gathered is stored in a dataframe, which is basically just a giant fancy excel spreadsheet. Each row in this table represents an entity. In our dataframe, an entity is defined by a state and a date. Each entity is unique, for example there is only one entity for Wyoming on February 27th. Each entity also stores other data, called attributes. Examples of attributes for our dataset would be the number of cases on a day, number of hits for a given search term, and whether or not a state is in lockdown. Each attribute is stored in a column. By storing the data like this, it is easy to manipulate the data and answer questions. The following shows the beginning of this dataframe:

corona_state_data %>% slice(2000:20005)

## # A tibble: 3,842 x 15
##    state date       cases deaths lockdown_start in_lockdown coronavirus_hits
##    <chr> <date>     <dbl>  <dbl> <date>         <lgl>                  <dbl>
##  1 Kans~ 2020-03-30   373      9 2020-03-30     TRUE                      50
##  2 Kent~ 2020-03-30   480     11 2020-03-26     TRUE                      48
##  3 Loui~ 2020-03-30  4024    186 2020-03-23     TRUE                      45
##  4 Maine 2020-03-30   275      3 2020-04-02     FALSE                     45
##  5 Mary~ 2020-03-30  1414     15 2020-03-30     TRUE                      55
##  6 Mass~ 2020-03-30  5752     56 2020-03-24     TRUE                      46
##  7 Mich~ 2020-03-30  6508    197 2020-03-24     TRUE                      55
##  8 Minn~ 2020-03-30   576     10 2020-03-27     TRUE                      41
##  9 Miss~ 2020-03-30   848     16 2020-04-03     FALSE                     48
## 10 Miss~ 2020-03-30  1049     13 2020-04-06     FALSE                     51
## # ... with 3,832 more rows, and 8 more variables: sourdough_hits <dbl>,
## #   bread_hits <dbl>, ticketmaster_hits <dbl>, zoom_hits <dbl>,
## #   max_cases <dbl>, max_deaths <dbl>, percent_cases <dbl>,
## #   percent_deaths <dbl>
…
